{
    "page": 1,
    "total_results": 10000,
    "total_pages": 500,
    "results": [
      {
        "popularity": 220.799,
        "vote_count": 2868,
        "video": false,
        "poster_path": "/qi6qwClvTfZJiI5GhsKbtkqg28W.jpg",
        "id": 454626,
        "adult": false,
        "backdrop_path": "/stmYfCUGd8Iy6kAMBr6AmWqx8Bq.jpg",
        "original_language": "en",
        "original_title": "Sonic the Hedgehog",
        "genre_ids": [
          28,
          35,
          878,
          10751
        ],
        "title": "Sonic le film",
        "vote_average": 7.5,
        "overview": "L'histoire du hérisson bleu le plus rapide du monde qui arrive sur Terre, sa nouvelle maison. Sonic et son nouveau meilleur ami Tom font équipe pour sauver la planète du diabolique Dr. Robotnik, bien déterminé à régner sur le monde entier.",
        "release_date": "2020-02-12"
      },
      {
        "popularity": 199.496,
        "vote_count": 147,
        "video": false,
        "poster_path": "/iBvo3qOPcmhlqAaJcXcQHtx2qLk.jpg",
        "id": 664767,
        "adult": false,
        "backdrop_path": "/vw3zNfzvnVNF7nIjpiEgcdznfeC.jpg",
        "original_language": "en",
        "original_title": "Mortal Kombat Legends: Scorpions Revenge",
        "genre_ids": [
          28,
          12,
          16,
          14
        ],
        "title": "Mortal Kombat Legends: Scorpion's Revenge",
        "vote_average": 8.5,
        "overview": "Lord Raiden, protecteur d'Earthrealm, doit rassembler les plus grands combattants de son royaume pour le défendre du démoniaque Shang Tsung dans une bataille ultime.",
        "release_date": "2020-04-12"
      },
      {
        "popularity": 204.235,
        "id": 38700,
        "video": false,
        "vote_count": 3202,
        "vote_average": 7.2,
        "title": "Bad Boys for Life",
        "release_date": "2020-01-15",
        "original_language": "en",
        "original_title": "Bad Boys for Life",
        "genre_ids": [
          53,
          28,
          80
        ],
        "backdrop_path": "/upUy2QhMZEmtypPW3PdieKLAHxh.jpg",
        "adult": false,
        "overview": "Marcus Burnett est maintenant inspecteur de police. Mike Lowery est, quant à lui, en pleine crise de la quarantaine. Ils s'unissent à nouveau lorsqu'un mercenaire albanais, dont ils ont tué le frère, leur promet une importante prime.",
        "poster_path": "/xbo43M8kdKK5Ku2oaKDMO9PNyo5.jpg"
      },
      {
        "popularity": 263.064,
        "vote_count": 789,
        "video": false,
        "poster_path": "/5a1WZ8qgcxw9gLJD7JQVfHeY0NN.jpg",
        "id": 443791,
        "adult": false,
        "backdrop_path": "/fYPiQewg7ogbzro2XcCTACSB2KC.jpg",
        "original_language": "en",
        "original_title": "Underwater",
        "genre_ids": [
          28,
          27,
          878,
          53
        ],
        "title": "Underwater",
        "vote_average": 6.5,
        "overview": "Une équipe scientifique sous-marine fait face à un tremblement de terre. Sous l'eau, ils vont devoir essayer de survivre.",
        "release_date": "2020-01-08"
      },
      {
        "popularity": 194.91,
        "vote_count": 4055,
        "video": false,
        "poster_path": "/w1fqnG3W2xqCPTvjdPJTcfPMYH1.jpg",
        "id": 181812,
        "adult": false,
        "backdrop_path": "/jOzrELAzFxtMx2I4uDGHOotdfsS.jpg",
        "original_language": "en",
        "original_title": "Star Wars: The Rise of Skywalker",
        "genre_ids": [
          28,
          12,
          878
        ],
        "title": "Star Wars : L'Ascension de Skywalker",
        "vote_average": 6.5,
        "overview": "Lucasfilm et le réalisateur J.J. Abrams unissent de nouveau leurs forces pour embarquer le spectateur dans un voyage épique vers une galaxie lointaine, très lointaine. Dans ce dernier acte captivant de la prodigieuse saga Skywalker, de nouvelles légendes voient le jour. L’ultime combat pour la liberté est à venir. Après le retour mystérieux de Palpatine, la Résistance affronte à nouveau le Premier Ordre. De nouvelles légendes vont naître dans cette bataille épique pour la liberté. La conclusion de la saga Skywalker.",
        "release_date": "2019-12-18"
      },
      {
        "popularity": 187.216,
        "id": 338762,
        "video": false,
        "vote_count": 1728,
        "vote_average": 7.2,
        "title": "Bloodshot",
        "release_date": "2020-03-05",
        "original_language": "en",
        "original_title": "Bloodshot",
        "genre_ids": [
          28,
          878
        ],
        "backdrop_path": "/ocUrMYbdjknu2TwzMHKT9PBBQRw.jpg",
        "adult": false,
        "overview": "Ray Garrison un soldat mort au combat ressuscité par l'entrepreneur en armement Rising Spirit Technologies grâce à la nanotechnologie. Souffrant d'une perte totale de mémoire mais désormais doté de toute une gamme de nouvelles capacités, Ray a du mal à renouer avec qui il était tout en apprenant quelle sorte d'arme il est devenu... Aidé par une équipe de camarades combattants augmentés sous le nom de code Chainsaw.",
        "poster_path": "/6VRhjfA495M6viOPL4aF1cIlGfE.jpg"
      },
      {
        "popularity": 99.229,
        "vote_count": 2786,
        "video": false,
        "poster_path": "/t8YtLyIrI9FoN6xTANYXiNPL3nR.jpg",
        "id": 47971,
        "adult": false,
        "backdrop_path": "/7VSpa8RSjvJe1vDgNWbT3IxT27d.jpg",
        "original_language": "en",
        "original_title": "xXx: Return of Xander Cage",
        "genre_ids": [
          28,
          12,
          80
        ],
        "title": "xXx : Reactivated",
        "vote_average": 5.6,
        "overview": "Xander Cage, sportif de l’extrême devenu agent d'élite, sort de l’exil qu’il s’était imposé, pour affronter le redoutable guerrier Alpha Xiang et son équipe. Il entre dans une course impitoyable afin de récupérer une arme de destruction massive connue sous le nom de Boîte de Pandore. Recrutant une toute nouvelle équipe d’experts accros à l'adrénaline, Xander se retrouve au cœur d’une conspiration menaçant les gouvernements les plus puissants du monde.",
        "release_date": "2017-01-13"
      },
      {
        "popularity": 171.849,
        "vote_count": 3111,
        "video": false,
        "poster_path": "/wdrTYPWH4UJWR2XIwCz85M6GdS3.jpg",
        "id": 495764,
        "adult": false,
        "backdrop_path": "/pbOOOT0ASXjP4aJZr5NyOjK9qix.jpg",
        "original_language": "en",
        "original_title": "Birds of Prey (and the Fantabulous Emancipation of One Harley Quinn)",
        "genre_ids": [
          28,
          35,
          80
        ],
        "title": "Birds of Prey et la fantabuleuse histoire de Harley Quinn",
        "vote_average": 7.2,
        "overview": "Vous connaissez l'histoire du flic, de l'oiseau chanteur, de la cinglée et de la princesse mafieuse ?\r BIRDS OF PREY (ET LA FANTABULEUSE HISTOIRE D'HARLEY QUINN) est une histoire déjantée racontée par Harley en personne – d'une manière dont elle seule a le secret. Lorsque Roman Sionis, l'ennemi le plus abominable – et le plus narcissique – de Gotham, et son fidèle acolyte Zsasz décident de s'en prendre à une certaine Cass, la ville est passée au peigne fin pour retrouver la trace de la jeune fille. Les parcours de Harley, de la Chasseuse, de Black Canary et de Renee Montoya se télescopent et ce quatuor improbable n'a d'autre choix que de faire équipe pour éliminer Roman…",
        "release_date": "2020-02-05"
      },
      {
        "popularity": 94.734,
        "vote_count": 502,
        "video": false,
        "poster_path": "/hrfh9uVxcTu21vVxDs40l0CDWGW.jpg",
        "id": 414419,
        "adult": false,
        "backdrop_path": null,
        "original_language": "en",
        "original_title": "Kill Bill: The Whole Bloody Affair",
        "genre_ids": [
          28,
          80
        ],
        "title": "Kill Bill: The Whole Bloody Affair",
        "vote_average": 8,
        "overview": "Kill Bill : The Whole Bloody Affair est une édition complète des deux films d'action d'arts martiaux Kill Bill : Volume 1 et Kill Bill : Volume 2. Le film était à l'origine prévu pour être publié comme une partie. Toutefois, en raison de la durée du film plus de 4 heures, il a été divisé en deux parties.",
        "release_date": "2011-03-28"
      },
      {
        "popularity": 117.042,
        "vote_count": 72,
        "video": false,
        "poster_path": "/apshkIq9OdMDKEXHH0GirHimdgR.jpg",
        "id": 466622,
        "adult": false,
        "backdrop_path": "/xpBTeAtDqd7sbXUS64dSILIPwtJ.jpg",
        "original_language": "en",
        "original_title": "The Rhythm Section",
        "genre_ids": [
          28,
          53
        ],
        "title": "Le rythme de la vengeance",
        "vote_average": 5.7,
        "overview": "Après la disparition de sa famille dans un accident d'avion, une femme, qui aurait du être à bord de l'appareil, s'auto-détruit. Lorsqu'elle réalise qu'il ne s'agissait pas d'un accident, elle devient une tueuse à la recherche des responsables.",
        "release_date": "2020-01-31"
      }
    ]
}